eoe-mbp:dev $ cat sudoku.txt 
030090070
004800500
000001006
000000002
005406800
100000000
700200000
008003400
090070060
 
eoe-mbp:dev $ ruby sudoku.rb < sudoku.txt 
831695274
964827531
527341986
386519742
275436819
149782653
753264198
618953427
492178365